{
  "id": 68,
  "nome": "admin-teste",
  "email": "admin@mail.com",
  "validacaoEmail": "2024-10-23T21:20:56.894Z",
  "trocaSenha": null,
  "tokenValidacaoEmail": "0a081f5b89dddd46f19717e870c3edfc",
  "tokenTrocaSenha": null,
  "aceiteTermos": null,
  "canDefineBase": true,
  "createdAt": "2024-10-23T21:20:56.894Z",
  "updatedAt": "2024-10-23T21:20:56.894Z"
}
